{
  "type": "service_account",
  "project_id": "fsjudowp",
  "private_key_id": "00bb5e0c1a43b1bf09997dd13cf12b728b35a155",
  "private_key": "-----BEGIN PRIVATE KEY-----\nMIIEvQIBADANBgkqhkiG9w0BAQEFAASCBKcwggSjAgEAAoIBAQCxcRl9zD3IhK6B\nQLuJdIQuLsO0ZpAisiX3bYjZ3TFRFhd7r2jcAYkgFbwoQKTWvrTpU20LEwM92EZc\nD0EgjOPv4a9SI+gMqqa9qMIVr5lZmrE4Ga/MYksNom5EwTEziT1mF3WiOsDm3lAr\n+AbSMs3JS5pY07CD7yAfBnl3cEl4fGr0ky6rMFcxrhyYNlWnrR6ratnGXn1FxmYO\nJpHsGWL25TwMHT+Ww25lTgCGpr8YhUQ+Wj0JL+QwpZQ9s/vK75pvdM980B4oLt65\nQIo/zQuMz+JBGkP+y322FDUtUfCTDGjX01eNCgIqH3OHxDt1fIOfdk5dZFceSQL/\n53rg1QArAgMBAAECggEAA8ON57S4Oh4nuMx/jeQKVRPJ3p7u/3AUTRd7jSow0chX\nBC54L3Pa4vLYab7WoErYTztlTJRWf8PW2OdmmW2o/MgmmLvz6qeItOzfp70bUs1s\nupoU4rrSXmjWekqMzsviS7LuBwcZsMFWJbCeWGwadbgkVIOyXVdqW4N0JSadGwX4\n0DRUL76Q/PwGCs6Znt09OSycYD2F5yKsiqMlUtXjw9i7skox+k5fw2Qj87ONIosf\n61RVG1CMT+TqAS3HIoYUBPnjnvXEhBQjBqiUthF4km/YG+72x/MFKJ6Ow88OtX/E\naUTXS/5JXjPdgr/Ny8Cwau8Vh62yvaMAc7UFe4x13QKBgQD0g9Pf1bAqwEANxDjZ\nIp3KNj6nfNsHEPJrPdHKUHs6ZpESHjz2EgkBNU3W18HYoGSHjRzdARLeRt8SGBT4\nHCnN6m7GWDFBVvQGKo4GhLrQfHjV2iy93cTZh6P6vX/cCokKJ4cibIChDv5eFK04\nC56QWpU0P6Fv9aFdyLhxTOht1wKBgQC5xsAIsJfi3ZXkEzBi/aSZOSOvgZshIVr1\n0Ko7mHKuLtJEsCzIfXNsdqPe8noPyymlAbqEZ7CQ1bEqYdErGMYBe81cYE5NFdv1\nWnC0aT5+O//IhariINEoCciE44+wzig7WxTjjFdocXvMz9ArHkajochutz1RC4uL\ny4WdWIPtzQKBgCu0THCbv0tE5a4QPqEBAPcdzwEc3gFbVBk7CX6B+CSuJIv6f6bz\n/kwK/QjDs9BGivF3lYsjH/4+6KxRRZ47WnWFy5sENHmbUy6u+IfNvZ56QRboUkr1\nkrPW/MZajLoF4AzCl/LdNfiTt3+Vboiv+v2OU1DtdquOWfNrZxxJRNotAoGAIbrX\nRPyjJxqqS1W8lEyPJQ69zvDONK60sCrprZZZRAzWOohuKRy15zyHNkR6KwHtFruA\nnOeipDlYSGSoMJX35W8P8zS9IrvUSvDXw7nUEeFc6JB0XUguEYHtOUuD3Esh/Nzl\npwblG9525tHYbuu5UZ5fINL+PAfHl2MlaFMY6QUCgYEAu2ueBqEVwgqswcwNfAn9\npG6wWScaBXg0uZ6UcLFrQ5y4uxmojDTasc+HcfengL63kO5OSJ9A+Y5rAqdbnnLC\nsAuJAz/BBqp3u+jLIlQ1t1hlw2ZlhgE0++twPSqEFVI6ULKQFG+pM5GQQUEFAzzX\n9mKwD6Dsnd18GN8NL/Bt8Q4=\n-----END PRIVATE KEY-----\n",
  "client_email": "firebase-adminsdk-xfrch@fsjudowp.iam.gserviceaccount.com",
  "client_id": "110866174197789177848",
  "auth_uri": "https://accounts.google.com/o/oauth2/auth",
  "token_uri": "https://accounts.google.com/o/oauth2/token",
  "auth_provider_x509_cert_url": "https://www.googleapis.com/oauth2/v1/certs",
  "client_x509_cert_url": "https://www.googleapis.com/robot/v1/metadata/x509/firebase-adminsdk-xfrch%40fsjudowp.iam.gserviceaccount.com"
}
